{
  "project_info": {
    "project_number": "48986569700",
    "firebase_url": "https://flikster-c0abf.firebaseio.com",
    "project_id": "flikster-c0abf",
    "storage_bucket": "flikster-c0abf.appspot.com"
  },
  "client": [
    {
      "client_info": {
        "mobilesdk_app_id": "1:48986569700:android:8054788f5459b89f",
        "android_client_info": {
          "package_name": "com.flikster"
        }
      },
      "oauth_client": [
        {
          "client_id": "48986569700-2o4bjfjl132771jiu8co12cq135p3fom.apps.googleusercontent.com",
          "client_type": 1,
          "android_info": {
            "package_name": "com.flikster",
            "certificate_hash": "4a50f30928b3bfbb87325f1dd69e40791248bc07"
          }
        },
        {
          "client_id": "48986569700-3qecc1pb5davkglf2t7280sedhrn1qs1.apps.googleusercontent.com",
          "client_type": 3
        }
      ],
      "api_key": [
        {
          "current_key": "AIzaSyC_Qs7lLTkuNo7nnCp1zmei35xFyrJig0s"
        }
      ],
      "services": {
        "analytics_service": {
          "status": 1
        },
        "appinvite_service": {
          "status": 2,
          "other_platform_oauth_client": [
            {
              "client_id": "48986569700-3qecc1pb5davkglf2t7280sedhrn1qs1.apps.googleusercontent.com",
              "client_type": 3
            }
          ]
        },
        "ads_service": {
          "status": 2
        }
      }
    }
  ],
  "configuration_version": "1"
}